{
  "$ref": "http://sports.core.api.espn.com/v2/sports/baseball/leagues/mlb/seasons/2025/athletes/40803/eventlog?lang=en&region=us",
  "teams": {
    "22": {
      "team": {
        "$ref": "http://sports.core.api.espn.com/v2/sports/baseball/leagues/mlb/seasons/2025/teams/22?lang=en&region=us"
      },
      "id": "22"
    }
  },
  "events": {
    "count": 94,
    "pageIndex": 1,
    "pageSize": 25,
    "pageCount": 4,
    "items": [
      {
        "event": {
          "$ref": "http://sports.core.api.espn.com/v2/sports/baseball/leagues/mlb/events/401694912?lang=en&region=us"
        },
        "competition": {
          "$ref": "http://sports.core.api.espn.com/v2/sports/baseball/leagues/mlb/events/401694912/competitions/401694912?lang=en&region=us"
        },
        "statistics": {
          "$ref": "http://sports.core.api.espn.com/v2/sports/baseball/leagues/mlb/events/401694912/competitions/401694912/competitors/22/roster/40803/statistics/0?lang=en&region=us"
        },
        "teamId": "22",
        "played": true
      },
      {
        "event": {
          "$ref": "http://sports.core.api.espn.com/v2/sports/baseball/leagues/mlb/events/401694934?lang=en&region=us"
        },
        "competition": {
          "$ref": "http://sports.core.api.espn.com/v2/sports/baseball/leagues/mlb/events/401694934/competitions/401694934?lang=en&region=us"
        },
        "statistics": {
          "$ref": "http://sports.core.api.espn.com/v2/sports/baseball/leagues/mlb/events/401694934/competitions/401694934/competitors/22/roster/40803/statistics/0?lang=en&region=us"
        },
        "teamId": "22",
        "played": true
      },
      {
        "event": {
          "$ref": "http://sports.core.api.espn.com/v2/sports/baseball/leagues/mlb/events/401694949?lang=en&region=us"
        },
        "competition": {
          "$ref": "http://sports.core.api.espn.com/v2/sports/baseball/leagues/mlb/events/401694949/competitions/401694949?lang=en&region=us"
        },
        "statistics": {
          "$ref": "http://sports.core.api.espn.com/v2/sports/baseball/leagues/mlb/events/401694949/competitions/401694949/competitors/22/roster/40803/statistics/0?lang=en&region=us"
        },
        "teamId": "22",
        "played": true
      },
      {
        "event": {
          "$ref": "http://sports.core.api.espn.com/v2/sports/baseball/leagues/mlb/events/401694961?lang=en&region=us"
        },
        "competition": {
          "$ref": "http://sports.core.api.espn.com/v2/sports/baseball/leagues/mlb/events/401694961/competitions/401694961?lang=en&region=us"
        },
        "statistics": {
          "$ref": "http://sports.core.api.espn.com/v2/sports/baseball/leagues/mlb/events/401694961/competitions/401694961/competitors/22/roster/40803/statistics/0?lang=en&region=us"
        },
        "teamId": "22",
        "played": true
      },
      {
        "event": {
          "$ref": "http://sports.core.api.espn.com/v2/sports/baseball/leagues/mlb/events/401695004?lang=en&region=us"
        },
        "competition": {
          "$ref": "http://sports.core.api.espn.com/v2/sports/baseball/leagues/mlb/events/401695004/competitions/401695004?lang=en&region=us"
        },
        "statistics": {
          "$ref": "http://sports.core.api.espn.com/v2/sports/baseball/leagues/mlb/events/401695004/competitions/401695004/competitors/22/roster/40803/statistics/0?lang=en&region=us"
        },
        "teamId": "22",
        "played": true
      },
      {
        "event": {
          "$ref": "http://sports.core.api.espn.com/v2/sports/baseball/leagues/mlb/events/401695010?lang=en&region=us"
        },
        "competition": {
          "$ref": "http://sports.core.api.espn.com/v2/sports/baseball/leagues/mlb/events/401695010/competitions/401695010?lang=en&region=us"
        },
        "statistics": {
          "$ref": "http://sports.core.api.espn.com/v2/sports/baseball/leagues/mlb/events/401695010/competitions/401695010/competitors/22/roster/40803/statistics/0?lang=en&region=us"
        },
        "teamId": "22",
        "played": true
      },
      {
        "event": {
          "$ref": "http://sports.core.api.espn.com/v2/sports/baseball/leagues/mlb/events/401695023?lang=en&region=us"
        },
        "competition": {
          "$ref": "http://sports.core.api.espn.com/v2/sports/baseball/leagues/mlb/events/401695023/competitions/401695023?lang=en&region=us"
        },
        "statistics": {
          "$ref": "http://sports.core.api.espn.com/v2/sports/baseball/leagues/mlb/events/401695023/competitions/401695023/competitors/22/roster/40803/statistics/0?lang=en&region=us"
        },
        "teamId": "22",
        "played": true
      },
      {
        "event": {
          "$ref": "http://sports.core.api.espn.com/v2/sports/baseball/leagues/mlb/events/401695038?lang=en&region=us"
        },
        "competition": {
          "$ref": "http://sports.core.api.espn.com/v2/sports/baseball/leagues/mlb/events/401695038/competitions/401695038?lang=en&region=us"
        },
        "statistics": {
          "$ref": "http://sports.core.api.espn.com/v2/sports/baseball/leagues/mlb/events/401695038/competitions/401695038/competitors/22/roster/40803/statistics/0?lang=en&region=us"
        },
        "teamId": "22",
        "played": true
      },
      {
        "event": {
          "$ref": "http://sports.core.api.espn.com/v2/sports/baseball/leagues/mlb/events/401695067?lang=en&region=us"
        },
        "competition": {
          "$ref": "http://sports.core.api.espn.com/v2/sports/baseball/leagues/mlb/events/401695067/competitions/401695067?lang=en&region=us"
        },
        "statistics": {
          "$ref": "http://sports.core.api.espn.com/v2/sports/baseball/leagues/mlb/events/401695067/competitions/401695067/competitors/22/roster/40803/statistics/0?lang=en&region=us"
        },
        "teamId": "22",
        "played": true
      },
      {
        "event": {
          "$ref": "http://sports.core.api.espn.com/v2/sports/baseball/leagues/mlb/events/401695082?lang=en&region=us"
        },
        "competition": {
          "$ref": "http://sports.core.api.espn.com/v2/sports/baseball/leagues/mlb/events/401695082/competitions/401695082?lang=en&region=us"
        },
        "statistics": {
          "$ref": "http://sports.core.api.espn.com/v2/sports/baseball/leagues/mlb/events/401695082/competitions/401695082/competitors/22/roster/40803/statistics/0?lang=en&region=us"
        },
        "teamId": "22",
        "played": true
      },
      {
        "event": {
          "$ref": "http://sports.core.api.espn.com/v2/sports/baseball/leagues/mlb/events/401695094?lang=en&region=us"
        },
        "competition": {
          "$ref": "http://sports.core.api.espn.com/v2/sports/baseball/leagues/mlb/events/401695094/competitions/401695094?lang=en&region=us"
        },
        "statistics": {
          "$ref": "http://sports.core.api.espn.com/v2/sports/baseball/leagues/mlb/events/401695094/competitions/401695094/competitors/22/roster/40803/statistics/0?lang=en&region=us"
        },
        "teamId": "22",
        "played": true
      },
      {
        "event": {
          "$ref": "http://sports.core.api.espn.com/v2/sports/baseball/leagues/mlb/events/401695107?lang=en&region=us"
        },
        "competition": {
          "$ref": "http://sports.core.api.espn.com/v2/sports/baseball/leagues/mlb/events/401695107/competitions/401695107?lang=en&region=us"
        },
        "statistics": {
          "$ref": "http://sports.core.api.espn.com/v2/sports/baseball/leagues/mlb/events/401695107/competitions/401695107/competitors/22/roster/40803/statistics/0?lang=en&region=us"
        },
        "teamId": "22",
        "played": true
      },
      {
        "event": {
          "$ref": "http://sports.core.api.espn.com/v2/sports/baseball/leagues/mlb/events/401695122?lang=en&region=us"
        },
        "competition": {
          "$ref": "http://sports.core.api.espn.com/v2/sports/baseball/leagues/mlb/events/401695122/competitions/401695122?lang=en&region=us"
        },
        "statistics": {
          "$ref": "http://sports.core.api.espn.com/v2/sports/baseball/leagues/mlb/events/401695122/competitions/401695122/competitors/22/roster/40803/statistics/0?lang=en&region=us"
        },
        "teamId": "22",
        "played": true
      },
      {
        "event": {
          "$ref": "http://sports.core.api.espn.com/v2/sports/baseball/leagues/mlb/events/401695137?lang=en&region=us"
        },
        "competition": {
          "$ref": "http://sports.core.api.espn.com/v2/sports/baseball/leagues/mlb/events/401695137/competitions/401695137?lang=en&region=us"
        },
        "statistics": {
          "$ref": "http://sports.core.api.espn.com/v2/sports/baseball/leagues/mlb/events/401695137/competitions/401695137/competitors/22/roster/40803/statistics/0?lang=en&region=us"
        },
        "teamId": "22",
        "played": true
      },
      {
        "event": {
          "$ref": "http://sports.core.api.espn.com/v2/sports/baseball/leagues/mlb/events/401695146?lang=en&region=us"
        },
        "competition": {
          "$ref": "http://sports.core.api.espn.com/v2/sports/baseball/leagues/mlb/events/401695146/competitions/401695146?lang=en&region=us"
        },
        "teamId": "22",
        "played": false
      },
      {
        "event": {
          "$ref": "http://sports.core.api.espn.com/v2/sports/baseball/leagues/mlb/events/401695159?lang=en&region=us"
        },
        "competition": {
          "$ref": "http://sports.core.api.espn.com/v2/sports/baseball/leagues/mlb/events/401695159/competitions/401695159?lang=en&region=us"
        },
        "statistics": {
          "$ref": "http://sports.core.api.espn.com/v2/sports/baseball/leagues/mlb/events/401695159/competitions/401695159/competitors/22/roster/40803/statistics/0?lang=en&region=us"
        },
        "teamId": "22",
        "played": true
      },
      {
        "event": {
          "$ref": "http://sports.core.api.espn.com/v2/sports/baseball/leagues/mlb/events/401695174?lang=en&region=us"
        },
        "competition": {
          "$ref": "http://sports.core.api.espn.com/v2/sports/baseball/leagues/mlb/events/401695174/competitions/401695174?lang=en&region=us"
        },
        "statistics": {
          "$ref": "http://sports.core.api.espn.com/v2/sports/baseball/leagues/mlb/events/401695174/competitions/401695174/competitors/22/roster/40803/statistics/0?lang=en&region=us"
        },
        "teamId": "22",
        "played": true
      },
      {
        "event": {
          "$ref": "http://sports.core.api.espn.com/v2/sports/baseball/leagues/mlb/events/401695393?lang=en&region=us"
        },
        "competition": {
          "$ref": "http://sports.core.api.espn.com/v2/sports/baseball/leagues/mlb/events/401695393/competitions/401695393?lang=en&region=us"
        },
        "statistics": {
          "$ref": "http://sports.core.api.espn.com/v2/sports/baseball/leagues/mlb/events/401695393/competitions/401695393/competitors/22/roster/40803/statistics/0?lang=en&region=us"
        },
        "teamId": "22",
        "played": true
      },
      {
        "event": {
          "$ref": "http://sports.core.api.espn.com/v2/sports/baseball/leagues/mlb/events/401695408?lang=en&region=us"
        },
        "competition": {
          "$ref": "http://sports.core.api.espn.com/v2/sports/baseball/leagues/mlb/events/401695408/competitions/401695408?lang=en&region=us"
        },
        "statistics": {
          "$ref": "http://sports.core.api.espn.com/v2/sports/baseball/leagues/mlb/events/401695408/competitions/401695408/competitors/22/roster/40803/statistics/0?lang=en&region=us"
        },
        "teamId": "22",
        "played": true
      },
      {
        "event": {
          "$ref": "http://sports.core.api.espn.com/v2/sports/baseball/leagues/mlb/events/401695436?lang=en&region=us"
        },
        "competition": {
          "$ref": "http://sports.core.api.espn.com/v2/sports/baseball/leagues/mlb/events/401695436/competitions/401695436?lang=en&region=us"
        },
        "statistics": {
          "$ref": "http://sports.core.api.espn.com/v2/sports/baseball/leagues/mlb/events/401695436/competitions/401695436/competitors/22/roster/40803/statistics/0?lang=en&region=us"
        },
        "teamId": "22",
        "played": true
      },
      {
        "event": {
          "$ref": "http://sports.core.api.espn.com/v2/sports/baseball/leagues/mlb/events/401695451?lang=en&region=us"
        },
        "competition": {
          "$ref": "http://sports.core.api.espn.com/v2/sports/baseball/leagues/mlb/events/401695451/competitions/401695451?lang=en&region=us"
        },
        "teamId": "22",
        "played": false
      },
      {
        "event": {
          "$ref": "http://sports.core.api.espn.com/v2/sports/baseball/leagues/mlb/events/401695464?lang=en&region=us"
        },
        "competition": {
          "$ref": "http://sports.core.api.espn.com/v2/sports/baseball/leagues/mlb/events/401695464/competitions/401695464?lang=en&region=us"
        },
        "statistics": {
          "$ref": "http://sports.core.api.espn.com/v2/sports/baseball/leagues/mlb/events/401695464/competitions/401695464/competitors/22/roster/40803/statistics/0?lang=en&region=us"
        },
        "teamId": "22",
        "played": true
      },
      {
        "event": {
          "$ref": "http://sports.core.api.espn.com/v2/sports/baseball/leagues/mlb/events/401695489?lang=en&region=us"
        },
        "competition": {
          "$ref": "http://sports.core.api.espn.com/v2/sports/baseball/leagues/mlb/events/401695489/competitions/401695489?lang=en&region=us"
        },
        "statistics": {
          "$ref": "http://sports.core.api.espn.com/v2/sports/baseball/leagues/mlb/events/401695489/competitions/401695489/competitors/22/roster/40803/statistics/0?lang=en&region=us"
        },
        "teamId": "22",
        "played": true
      },
      {
        "event": {
          "$ref": "http://sports.core.api.espn.com/v2/sports/baseball/leagues/mlb/events/401695519?lang=en&region=us"
        },
        "competition": {
          "$ref": "http://sports.core.api.espn.com/v2/sports/baseball/leagues/mlb/events/401695519/competitions/401695519?lang=en&region=us"
        },
        "statistics": {
          "$ref": "http://sports.core.api.espn.com/v2/sports/baseball/leagues/mlb/events/401695519/competitions/401695519/competitors/22/roster/40803/statistics/0?lang=en&region=us"
        },
        "teamId": "22",
        "played": true
      },
      {
        "event": {
          "$ref": "http://sports.core.api.espn.com/v2/sports/baseball/leagues/mlb/events/401695548?lang=en&region=us"
        },
        "competition": {
          "$ref": "http://sports.core.api.espn.com/v2/sports/baseball/leagues/mlb/events/401695548/competitions/401695548?lang=en&region=us"
        },
        "statistics": {
          "$ref": "http://sports.core.api.espn.com/v2/sports/baseball/leagues/mlb/events/401695548/competitions/401695548/competitors/22/roster/40803/statistics/0?lang=en&region=us"
        },
        "teamId": "22",
        "played": true
      }
    ]
  }
}